jsonFlickrApi({
			"photos": {
				"page": 1,
				"pages": 100,
				"perpage": 10,
				"total": 1000,
				"photo": [{
							"id": "26639967338",
							"owner": "86448100@N07",
							"secret": "7d7bc498d7",
							"server": "4752",
							"farm": 5,
							"title": "DSC09430",
							"ispublic": 1,
							"isfriend": 0,
							"isfamily": 0,
							"dateupload": "1519709308",
							"ownername": "milarepa2",
							"views": "0",
							"tags": "",
							"url_sq": "https:\/\/farm5.staticflickr.com\/4752\/26639967338_7d7bc498d7_s.jpg",
							"height_sq": 75,
							"width_sq": 75
						}, {
							"id": "38700791700",
							"owner": "142426414@N06",
							"secret": "f770e93717",
							"server": "4741",
							"farm": 5,
							"title": "Tendance Robe du mariage 2017\/2018 \u2013 Elegantly crafted tulle wedding dress with lace sleeves | Essense of Australia |\u2026",
							"ispublic": 1,
							"isfriend": 0,
							"isfamily": 0,
							"dateupload": "1519709302",
							"ownername": "flashmag",
							"views": "0",
							"tags": "",
							"url_sq": "https:\/\/farm5.staticflic
